\relax 
\providecommand\HyperFirstAtBeginDocument{\AtBeginDocument}
\HyperFirstAtBeginDocument{\ifx\hyper@anchor\@undefined
\global\let\oldcontentsline\contentsline
\gdef\contentsline#1#2#3#4{\oldcontentsline{#1}{#2}{#3}}
\global\let\oldnewlabel\newlabel
\gdef\newlabel#1#2{\newlabelxx{#1}#2}
\gdef\newlabelxx#1#2#3#4#5#6{\oldnewlabel{#1}{{#2}{#3}}}
\AtEndDocument{\ifx\hyper@anchor\@undefined
\let\contentsline\oldcontentsline
\let\newlabel\oldnewlabel
\fi}
\fi}
\global\let\hyper@last\relax 
\gdef\HyperFirstAtBeginDocument#1{#1}
\providecommand\HyField@AuxAddToFields[1]{}
\emailauthor{cwang@ecs.umass.edu}{Cong Wang\corref {cor1}}
\emailauthor{zink@ecs.umass.edu}{Michael Zink}
\emailauthor{zink@ecs.umass.edu}{David Irwin}
\Newlabel{t1}{1}
\citation{igsc15}
\Newlabel{cor1}{1}
\citation{challenges}
\citation{challenges}
\citation{subcommittee-report}
\citation{top500}
\citation{graph500}
\citation{exascale-report}
\citation{simon-presentation}
\Newlabel{rvt}{a}
\@writefile{toc}{\contentsline {section}{\numberline {1}Introduction}{2}{section.1}}
\newlabel{sec:intro}{{1}{2}{Introduction\relax }{section.1}{}}
\citation{koomey11}
\citation{epa-report}
\citation{presentation}
\@writefile{lof}{\contentsline {figure}{\numberline {1}{\ignorespaces Electricity's real-time price fluctuates significantly every few minutes.}}{4}{figure.1}}
\newlabel{fig:examples}{{1}{4}{Electricity's real-time price fluctuates significantly every few minutes}{figure.1}{}}
\citation{fawn}
\@writefile{toc}{\contentsline {section}{\numberline {2}Background}{6}{section.2}}
\newlabel{sec:background}{{2}{6}{Background\relax }{section.2}{}}
\@writefile{toc}{\contentsline {subsection}{\numberline {2.1}Problem Statement}{6}{subsection.2.1}}
\@writefile{toc}{\contentsline {subsection}{\numberline {2.2}Power Capping Mechanisms}{6}{subsection.2.2}}
\citation{energy-prop-ensemble}
\citation{graph500}
\citation{parallel-bfs}
\citation{pbfs-original}
\@writefile{toc}{\contentsline {subsection}{\numberline {2.3}Parallel Task Model}{7}{subsection.2.3}}
\citation{mpi2}
\@writefile{toc}{\contentsline {section}{\numberline {3}Dynamic Energy Management Policies}{9}{section.3}}
\newlabel{sec:algorithm}{{3}{9}{Dynamic Energy Management Policies\relax }{section.3}{}}
\@writefile{toc}{\contentsline {subsection}{\numberline {3.1}Rigid Parallel Applications}{9}{subsection.3.1}}
\newlabel{subsec:rigid-policy}{{3.1}{9}{Rigid Parallel Applications\relax }{subsection.3.1}{}}
\@writefile{loa}{\contentsline {algorithm}{\numberline {1}{\ignorespaces Balanced policy}}{10}{algorithm.1}}
\newlabel{alg:balanced}{{1}{10}{Rigid Parallel Applications\relax }{algorithm.1}{}}
\@writefile{lof}{\contentsline {figure}{\numberline {2}{\ignorespaces Power fluctuations (every 10 seconds) for two worker nodes executing the reference MPI implementation of the Graph500 benchmark.}}{11}{figure.2}}
\newlabel{fig:fluctuations}{{2}{11}{Power fluctuations (every 10 seconds) for two worker nodes executing the reference MPI implementation of the Graph500 benchmark}{figure.2}{}}
\@writefile{toc}{\contentsline {subsection}{\numberline {3.2}Elastic Parallel Applications and Overhead Power}{12}{subsection.3.2}}
\@writefile{loa}{\contentsline {algorithm}{\numberline {2}{\ignorespaces Greedy policy}}{13}{algorithm.2}}
\newlabel{alg:greedy}{{2}{13}{Elastic Parallel Applications and Overhead Power\relax }{algorithm.2}{}}
\@writefile{lof}{\contentsline {figure}{\numberline {3}{\ignorespaces Overhead power analysis with different management policies.}}{14}{figure.3}}
\newlabel{fig:power-capping-comparison}{{3}{14}{Overhead power analysis with different management policies}{figure.3}{}}
\@writefile{lof}{\contentsline {figure}{\numberline {4}{\ignorespaces Graph500 runtime analysis with different management policies.}}{14}{figure.4}}
\newlabel{fig:algo-comparison}{{4}{14}{Graph500 runtime analysis with different management policies}{figure.4}{}}
\@writefile{loa}{\contentsline {algorithm}{\numberline {3}{\ignorespaces Agile policy}}{15}{algorithm.3}}
\newlabel{alg:agile}{{3}{15}{Elastic Parallel Applications and Overhead Power\relax }{algorithm.3}{}}
\@writefile{lot}{\contentsline {table}{\numberline {1}{\ignorespaces Summary of design space for energy-agile policies.}}{15}{table.1}}
\newlabel{tab:summary}{{1}{15}{Summary of design space for energy-agile policies}{table.1}{}}
\@writefile{toc}{\contentsline {section}{\numberline {4}Implementation}{15}{section.4}}
\newlabel{sec:implementation}{{4}{15}{Implementation\relax }{section.4}{}}
\@writefile{toc}{\contentsline {subsection}{\numberline {4.1}System Architecture and Reference Applications}{15}{subsection.4.1}}
\citation{graph500}
\citation{6008941}
\citation{wrf}
\citation{jacobi}
\@writefile{lof}{\contentsline {figure}{\numberline {5}{\ignorespaces Our prototype system architecture and power manager.}}{16}{figure.5}}
\newlabel{fig:systemArchitecture}{{5}{16}{Our prototype system architecture and power manager}{figure.5}{}}
\citation{Ricci14Introducing}
\newlabel{fig:solar-energy}{{6(a)}{17}{Subfigure 6(a)\relax }{subfigure.6.1}{}}
\newlabel{sub@fig:solar-energy}{{(a)}{17}{Subfigure 6(a)\relax }{subfigure.6.1}{}}
\newlabel{fig:wind-energy}{{6(b)}{17}{Subfigure 6(b)\relax }{subfigure.6.2}{}}
\newlabel{sub@fig:wind-energy}{{(b)}{17}{Subfigure 6(b)\relax }{subfigure.6.2}{}}
\newlabel{fig:energy-n-price}{{6(c)}{17}{Subfigure 6(c)\relax }{subfigure.6.3}{}}
\newlabel{sub@fig:energy-n-price}{{(c)}{17}{Subfigure 6(c)\relax }{subfigure.6.3}{}}
\@writefile{lof}{\contentsline {figure}{\numberline {6}{\ignorespaces The solar (\ref  {fig:solar-energy}) and wind power (\ref  {fig:wind-energy}) generated over a day, as well as a power signal based on using a fixed budget to purchase electricity at real-time prices in the five-minute spot market (\ref  {fig:energy-n-price}).}}{17}{figure.6}}
\@writefile{lof}{\contentsline {subfigure}{\numberline{(a)}{\ignorespaces {}}}{17}{figure.6}}
\@writefile{lof}{\contentsline {subfigure}{\numberline{(b)}{\ignorespaces {}}}{17}{figure.6}}
\@writefile{lof}{\contentsline {subfigure}{\numberline{(c)}{\ignorespaces {}}}{17}{figure.6}}
\newlabel{fig:energy}{{6}{17}{The solar (\ref {fig:solar-energy}) and wind power (\ref {fig:wind-energy}) generated over a day, as well as a power signal based on using a fixed budget to purchase electricity at real-time prices in the five-minute spot market (\ref {fig:energy-n-price})}{figure.6}{}}
\@writefile{toc}{\contentsline {subsection}{\numberline {4.2}Input Power Signal}{17}{subsection.4.2}}
\@writefile{toc}{\contentsline {section}{\numberline {5}Performance Evaluation}{17}{section.5}}
\newlabel{sec:evaluation}{{5}{17}{Performance Evaluation\relax }{section.5}{}}
\@writefile{toc}{\contentsline {subsection}{\numberline {5.1}Node power usage}{18}{subsection.5.1}}
\newlabel{subsec:graphscale}{{5.1}{18}{Node power usage\relax }{subsection.5.1}{}}
\@writefile{lof}{\contentsline {figure}{\numberline {7}{\ignorespaces Variation in power consumption when running Graph500 for different size graphs.}}{19}{figure.7}}
\newlabel{fig:scale-vs-power}{{7}{19}{Variation in power consumption when running Graph500 for different size graphs}{figure.7}{}}
\@writefile{lof}{\contentsline {figure}{\numberline {8}{\ignorespaces Power usage at different CPU load levels.}}{19}{figure.8}}
\newlabel{fig:cpu-vs-power}{{8}{19}{Power usage at different CPU load levels}{figure.8}{}}
\@writefile{toc}{\contentsline {subsection}{\numberline {5.2}Rigid Parallel Applications}{19}{subsection.5.2}}
\@writefile{lof}{\contentsline {figure}{\numberline {9}{\ignorespaces Runtime of rigid Graph500 for solar, wind and price-based power signals using both the dynamic policy and static balanced policy that employ active power capping.}}{20}{figure.9}}
\newlabel{fig:nonelastic-runtime}{{9}{20}{Runtime of rigid Graph500 for solar, wind and price-based power signals using both the dynamic policy and static balanced policy that employ active power capping}{figure.9}{}}
\@writefile{lof}{\contentsline {figure}{\numberline {10}{\ignorespaces Energy consumption of rigid Graph500 for solar, wind and price-based power signals using both the dynamic policy and static balanced policy that employs only active power capping.}}{21}{figure.10}}
\newlabel{fig:nonelastic-power}{{10}{21}{Energy consumption of rigid Graph500 for solar, wind and price-based power signals using both the dynamic policy and static balanced policy that employs only active power capping}{figure.10}{}}
\@writefile{toc}{\contentsline {subsection}{\numberline {5.3}Elastic Parallel Applications}{21}{subsection.5.3}}
\newlabel{fig:s-v-d-solar}{{11(a)}{22}{Subfigure 11(a)\relax }{subfigure.11.1}{}}
\newlabel{sub@fig:s-v-d-solar}{{(a)}{22}{Subfigure 11(a)\relax }{subfigure.11.1}{}}
\newlabel{fig:s-v-d-wind}{{11(b)}{22}{Subfigure 11(b)\relax }{subfigure.11.2}{}}
\newlabel{sub@fig:s-v-d-wind}{{(b)}{22}{Subfigure 11(b)\relax }{subfigure.11.2}{}}
\newlabel{fig:s-v-d-price}{{11(c)}{22}{Subfigure 11(c)\relax }{subfigure.11.3}{}}
\newlabel{sub@fig:s-v-d-price}{{(c)}{22}{Subfigure 11(c)\relax }{subfigure.11.3}{}}
\@writefile{lof}{\contentsline {figure}{\numberline {11}{\ignorespaces Runtime of elastic Graph500 for greedy, balanced and agile policies with solar (\ref  {fig:s-v-d-solar}), wind (\ref  {fig:s-v-d-wind}), and price-based power signals (\ref  {fig:s-v-d-price}) for cases with multiple applications.}}{22}{figure.11}}
\@writefile{lof}{\contentsline {subfigure}{\numberline{(a)}{\ignorespaces {}}}{22}{figure.11}}
\@writefile{lof}{\contentsline {subfigure}{\numberline{(b)}{\ignorespaces {}}}{22}{figure.11}}
\@writefile{lof}{\contentsline {subfigure}{\numberline{(c)}{\ignorespaces {}}}{22}{figure.11}}
\newlabel{fig:static-vs-dynamic}{{11}{22}{Runtime of elastic Graph500 for greedy, balanced and agile policies with solar (\ref {fig:s-v-d-solar}), wind (\ref {fig:s-v-d-wind}), and price-based power signals (\ref {fig:s-v-d-price}) for cases with multiple applications}{figure.11}{}}
\newlabel{fig:s-v-d-solar-power}{{12(a)}{22}{Subfigure 12(a)\relax }{subfigure.12.1}{}}
\newlabel{sub@fig:s-v-d-solar-power}{{(a)}{22}{Subfigure 12(a)\relax }{subfigure.12.1}{}}
\newlabel{fig:s-v-d-wind-power}{{12(b)}{22}{Subfigure 12(b)\relax }{subfigure.12.2}{}}
\newlabel{sub@fig:s-v-d-wind-power}{{(b)}{22}{Subfigure 12(b)\relax }{subfigure.12.2}{}}
\newlabel{fig:s-v-d-price-power}{{12(c)}{22}{Subfigure 12(c)\relax }{subfigure.12.3}{}}
\newlabel{sub@fig:s-v-d-price-power}{{(c)}{22}{Subfigure 12(c)\relax }{subfigure.12.3}{}}
\@writefile{lof}{\contentsline {figure}{\numberline {12}{\ignorespaces Total energy consumption for greedy, balanced and agile policies with solar (\ref  {fig:s-v-d-solar-power}), wind (\ref  {fig:s-v-d-wind-power}), and price-based power signals (\ref  {fig:s-v-d-price-power}) for cases with multiple applications.}}{22}{figure.12}}
\@writefile{lof}{\contentsline {subfigure}{\numberline{(a)}{\ignorespaces {}}}{22}{figure.12}}
\@writefile{lof}{\contentsline {subfigure}{\numberline{(b)}{\ignorespaces {}}}{22}{figure.12}}
\@writefile{lof}{\contentsline {subfigure}{\numberline{(c)}{\ignorespaces {}}}{22}{figure.12}}
\newlabel{fig:static-vs-dynamic-power}{{12}{22}{Total energy consumption for greedy, balanced and agile policies with solar (\ref {fig:s-v-d-solar-power}), wind (\ref {fig:s-v-d-wind-power}), and price-based power signals (\ref {fig:s-v-d-price-power}) for cases with multiple applications}{figure.12}{}}
\@writefile{lot}{\contentsline {table}{\numberline {2}{\ignorespaces Comparison of power overhead for all policies in terms of percentage of total available power (\%).}}{23}{table.2}}
\newlabel{tab:power-overhead}{{2}{23}{Comparison of power overhead for all policies in terms of percentage of total available power (\%)}{table.2}{}}
\newlabel{fig:fixed-full-runtime}{{13(a)}{24}{Subfigure 13(a)\relax }{subfigure.13.1}{}}
\newlabel{sub@fig:fixed-full-runtime}{{(a)}{24}{Subfigure 13(a)\relax }{subfigure.13.1}{}}
\newlabel{fig:fixed-full-power}{{13(b)}{24}{Subfigure 13(b)\relax }{subfigure.13.2}{}}
\newlabel{sub@fig:fixed-full-power}{{(b)}{24}{Subfigure 13(b)\relax }{subfigure.13.2}{}}
\@writefile{lof}{\contentsline {figure}{\numberline {13}{\ignorespaces The runtime (\ref  {fig:fixed-full-runtime}) and power consumption (\ref  {fig:fixed-full-power}) of elastic Graph500 when operating under full power and fixed power budget.}}{24}{figure.13}}
\@writefile{lof}{\contentsline {subfigure}{\numberline{(a)}{\ignorespaces {}}}{24}{figure.13}}
\@writefile{lof}{\contentsline {subfigure}{\numberline{(b)}{\ignorespaces {}}}{24}{figure.13}}
\newlabel{fig:fixed-full}{{13}{24}{The runtime (\ref {fig:fixed-full-runtime}) and power consumption (\ref {fig:fixed-full-power}) of elastic Graph500 when operating under full power and fixed power budget}{figure.13}{}}
\@writefile{lot}{\contentsline {table}{\numberline {3}{\ignorespaces Comparison of energy cost for non-renewable powered cluster.}}{25}{table.3}}
\newlabel{tab:power-cost}{{3}{25}{Comparison of energy cost for non-renewable powered cluster}{table.3}{}}
\@writefile{lof}{\contentsline {figure}{\numberline {14}{\ignorespaces Runtime of elastic Graph500 with different storage capacities ($\tau $).}}{26}{figure.14}}
\newlabel{fig:t-vs-tau}{{14}{26}{Runtime of elastic Graph500 with different storage capacities ($\tau $)}{figure.14}{}}
\@writefile{lof}{\contentsline {figure}{\numberline {15}{\ignorespaces The runtime of elastic Graph500 as a function of the inactive transition time.}}{27}{figure.15}}
\newlabel{fig:transition-time}{{15}{27}{The runtime of elastic Graph500 as a function of the inactive transition time}{figure.15}{}}
\newlabel{fig:algorithm-runtime-solar}{{16(a)}{27}{Subfigure 16(a)\relax }{subfigure.16.1}{}}
\newlabel{sub@fig:algorithm-runtime-solar}{{(a)}{27}{Subfigure 16(a)\relax }{subfigure.16.1}{}}
\newlabel{fig:algorithm-runtime-wind}{{16(b)}{27}{Subfigure 16(b)\relax }{subfigure.16.2}{}}
\newlabel{sub@fig:algorithm-runtime-wind}{{(b)}{27}{Subfigure 16(b)\relax }{subfigure.16.2}{}}
\newlabel{fig:algorithm-runtime-price}{{16(c)}{27}{Subfigure 16(c)\relax }{subfigure.16.3}{}}
\newlabel{sub@fig:algorithm-runtime-price}{{(c)}{27}{Subfigure 16(c)\relax }{subfigure.16.3}{}}
\@writefile{lof}{\contentsline {figure}{\numberline {16}{\ignorespaces The runtime of our elastic variant of Graph500 when using a solar power signal (\ref  {fig:algorithm-runtime-solar}), wind power signal (\ref  {fig:algorithm-runtime-wind}), and a power signal based on electricity price data (\ref  {fig:algorithm-runtime-price}).}}{27}{figure.16}}
\@writefile{lof}{\contentsline {subfigure}{\numberline{(a)}{\ignorespaces {}}}{27}{figure.16}}
\@writefile{lof}{\contentsline {subfigure}{\numberline{(b)}{\ignorespaces {}}}{27}{figure.16}}
\@writefile{lof}{\contentsline {subfigure}{\numberline{(c)}{\ignorespaces {}}}{27}{figure.16}}
\newlabel{fig:algorithm-runtime}{{16}{27}{The runtime of our elastic variant of Graph500 when using a solar power signal (\ref {fig:algorithm-runtime-solar}), wind power signal (\ref {fig:algorithm-runtime-wind}), and a power signal based on electricity price data (\ref {fig:algorithm-runtime-price})}{figure.16}{}}
\citation{apple}
\citation{bhuvan1}
\citation{agility}
\citation{sharma:asplos11}
\citation{blinkfs}
\citation{sc11vm}
\citation{parasol}
\@writefile{toc}{\contentsline {section}{\numberline {6}Related Work}{28}{section.6}}
\newlabel{sec:related}{{6}{28}{Related Work\relax }{section.6}{}}
\citation{kappiah-dvfs}
\@writefile{toc}{\contentsline {section}{\numberline {7}Conclusion}{29}{section.7}}
\newlabel{sec:conc}{{7}{29}{Conclusion\relax }{section.7}{}}
\bibstyle{abbrv}
\bibdata{paper}
\bibcite{graph500}{{1}{}{{}}{{}}}
\bibcite{mpi2}{{2}{}{{}}{{}}}
\bibcite{top500}{{3}{}{{}}{{}}}
\bibcite{wrf}{{4}{}{{}}{{}}}
\bibcite{subcommittee-report}{{5}{}{{}}{{}}}
\bibcite{challenges}{{6}{}{{}}{{}}}
\bibcite{fawn}{{7}{}{{}}{{}}}
\bibcite{apple}{{8}{}{{}}{{}}}
\bibcite{parallel-bfs}{{9}{}{{}}{{}}}
\bibcite{parasol}{{10}{}{{}}{{}}}
\bibcite{bhuvan1}{{11}{}{{}}{{}}}
\bibcite{jacobi}{{12}{}{{}}{{}}}
\bibcite{kappiah-dvfs}{{13}{}{{}}{{}}}
\bibcite{exascale-report}{{14}{}{{}}{{}}}
\bibcite{koomey11}{{15}{}{{}}{{}}}
\bibcite{agility}{{16}{}{{}}{{}}}
\bibcite{sc11vm}{{17}{}{{}}{{}}}
\bibcite{presentation}{{18}{}{{}}{{}}}
\bibcite{pbfs-original}{{19}{}{{}}{{}}}
\bibcite{6008941}{{20}{}{{}}{{}}}
\bibcite{Ricci14Introducing}{{21}{}{{}}{{}}}
\bibcite{sharma:asplos11}{{22}{}{{}}{{}}}
\bibcite{blinkfs}{{23}{}{{}}{{}}}
\bibcite{simon-presentation}{{24}{}{{}}{{}}}
\bibcite{energy-prop-ensemble}{{25}{}{{}}{{}}}
\bibcite{epa-report}{{26}{}{{}}{{}}}
\bibcite{igsc15}{{27}{}{{}}{{}}}
\providecommand\NAT@force@numbers{}\NAT@force@numbers
