1 25.17
2 28.08
3 53.88
4 54.19
5 28.41
6 46.07
7 46.31
8 39.57
9 39.56
10 38.21
11 38.22
12 30.05
13 40.64
14 40.68
15 30.47
16 30.45
17 28.45
18 28.25
19 28.26
20 27.89
21 27.87
22 26.46
23 28
24 27
25 27.33
26 27.34
27 27.37
28 27.34
29 27.81
30 27.35
31 27.35
32 27.35
33 27.38
34 27.4
35 26.25
36 26.29
37 25.27
38 25.48
39 25.46
40 25.45
41 25.79
42 25.79
43 25.28
44 25.32
45 25.24
46 25.25
47 25.24
48 23.37
49 23.4
50 25.09
51 25.09
52 25.07
53 25.09
54 23.44
55 23.45
56 23.46
57 23.5
58 23.47
59 23.48
60 45.76
61 39.47
62 45.77
63 39.22
64 40.83
65 45.2
66 45.21
67 255.51
68 255.92
69 257.2
70 39.25
71 25.72
72 25.75
73 28.65
74 254.33
75 253.55
76 294.75
77 26.28
78 25.06
79 24.98
80 25.01
81 25.02
82 23.46
83 23.52
84 21.05
85 22.06
86 21.05
87 21.13
88 23.33
89 23.36
90 23.47
91 23.34
92 23.45
93 23.42
94 23.39
95 23.41
96 24.38
97 24.62
98 24.61
99 24.6
100 24.14
101 24.04
102 23.32
103 23.33
104 24.85
105 23.63
106 23.55
107 23.55
108 23.94
109 24.4
110 25.73
111 25.98
112 25.94
113 25.25
114 25.26
115 25.86
116 25.83
117 25.93
118 26.09
119 26.14
120 26.9
121 28.63
122 66.45
123 43.21
124 264.06
125 263.6
126 264.92
127 300.29
128 300.51
129 349.5
130 265.45
131 265.35
132 264.61
133 266.55
134 49.19
135 49.24
136 49.22
137 71.56
138 71.53
139 71.57
140 71.33
141 261.98
142 263.67
143 263.5
144 264.44
145 26.63
146 26.48
147 25.73
148 25.79
149 25.95
150 26.01
151 26.15
152 26.13
153 25.76
154 25.75
155 24.98
156 25.04
157 23.52
158 22.8
159 21.87
160 21.89
161 23.54
162 23.55
163 23.62
164 23.61
165 20.83
166 20.88
167 20.98
168 20.99
169 21.01
170 22.16
171 22.16
172 21.67
173 21.68
174 21.58
175 21.62
176 21.67
177 21.67
178 21.98
179 22.03
180 22.62
181 23.38
182 23.42
183 23.17
184 22.67
185 22.65
186 22.67
187 21.46
188 20.93
189 21.12
190 21.9
191 21.12
192 22.17
193 22.31
194 22.32
195 22.77
196 23.16
197 22.31
198 20.89
199 20.91
200 22.72
201 22.73
202 23.61
203 24.06
204 24.06
205 24.09
206 24.1
207 24.09
208 25.14
209 25.15
210 25.13
211 25.13
212 25.23
213 25.59
214 25.76
215 25.83
216 25.84
217 25.27
218 25.57
219 25.65
220 25.67
221 46.13
222 73.84
223 305.73
224 305.95
225 348.65
226 348.96
227 349.04
228 343.18
229 79.95
230 298.06
231 298.69
232 271.25
233 271.01
234 271.13
235 270.97
236 64.57
237 64.58
238 20.9
239 20.88
240 24.85
241 25.14
242 25.16
243 25.16
244 25.43
245 25.46
246 25.12
247 25.13
248 25.33
249 24.97
250 24.91
251 25.12
252 25.16
253 25.18
254 25.13
255 25.23
256 26.23
257 26.24
258 26.19
259 26.23
260 25.22
261 25.24
262 25.17
263 25.24
264 25.12
265 25.22
266 25.14
267 25.44
268 25.14
269 25.17
270 25.18
271 25.47
272 25.21
273 25.21
274 24.91
275 24.9
276 25.12
277 23.44
278 24.14
279 24.2
280 24.94
281 24.99
282 25.12
283 25.14
284 23.7
285 23.7
286 23.28
287 23.36
288 24.96
289 25.01
290 25.04
291 25.15
292 25.19
293 25.15
294 25.19
295 25.17
296 25.11
297 25.13
298 24.13
299 24.1
300 24.1
301 24.23
302 24.04
303 24.04
304 24.04
305 23.86
306 23.71
307 23.62
308 23.44
309 23.45
310 23.37
311 23.36
312 23.89
313 23.91
314 23.91
315 23.96
316 23.86
317 23.87
318 23.5
319 23.47
320 23.45
321 23.48
322 23.41
323 23.43
324 23.94
325 23.96
326 24.03
327 24.05
328 24.04
329 24.06
330 23.99
331 23.99
332 23.93
333 23.92
334 23.71
335 23.74
336 23.9
337 23.91
338 23.56
339 23.47
340 23.46
341 23.46
342 23.71
343 23.67
344 23.83
345 23.84
346 23.9
347 23.02
348 23.55
349 23.51
350 23.51
351 22.41
352 22.47
353 22.13
354 22.67
355 21.58
356 21.57
357 22.89
358 21.01
359 21
360 15.81
361 15.85
362 15.84
363 15.85
364 15.85
365 15.8
366 15.81
367 18.4
368 21.07
369 15.74
370 15.74
371 15.76
372 15.74
373 18.46
374 18.47
375 23.35
376 22.1
377 22.12
378 22.72
379 22.77
380 23.34
381 23.32
382 23.38
383 23.4
384 23.44
385 23.44
386 23.59
387 24.35
388 24.34
389 24
390 24.33
391 24.35
392 23.99
393 21.3
394 22.06
395 22.09
396 23.38
397 23.78
398 22.8
399 24.23
400 23.81
401 23.82
402 24.38
403 24.37
404 24.82
405 24.83
406 24.81
407 24.84
408 24.97
409 26.34
410 26.21
411 26.79
412 26.79
413 26.99
414 26.87
415 26.93
416 27.04
417 27.05
418 27.15
419 27.3
420 27.01
421 27.05
422 27.11
423 27.23
424 27.22
425 27.3
426 26.92
427 26.93
428 26.93
429 26.86
430 26.4
431 26.41
432 27.27
433 27.31
434 29.18
435 35.42
436 31.05
437 31.09
438 31.36
439 31.05
440 31.23
441 31.19
442 31.8
443 31.81
444 31.94
445 31.86
446 31.96
447 31.94
448 30.32
449 30.45
450 30.21
451 30.24
452 30.25
453 30.3
454 29.91
455 29.92
456 29.42
457 29.37
458 29.25
459 29.27
460 29.17
461 29.2
462 28.01
463 28.04
464 29.15
465 29.2
466 29.2
467 28
468 26.58
469 26.6
470 26.05
471 25.35
472 26.2
473 26.19
474 26.23
475 26.23
476 26.39
477 26.31
478 26.26
479 26.08
480 26.89
481 27
482 26.81
483 27.03
484 28.04
485 29.26
486 29.18
487 29.18
488 29.19
489 29.22
490 29.25
491 28.22
492 29.42
493 29.66
494 30.97
495 30.97
496 32.01
497 31.96
498 32.7
499 32.79
500 38.25
501 38.27
502 39.1
503 39.14
504 39.16
505 39.15
506 32.17
507 36.67
508 42.35
509 42.4
510 33.42
511 33.46
512 38.94
513 30.28
514 30.03
515 30.06
516 29.38
517 27.31
518 27.32
519 27.89
520 27.13
521 26.83
522 26.39
523 25.84
524 26.21
525 25.26
526 25.5
527 25.51
528 37.28
529 37.27
530 27.71
531 27.8
532 27.87
533 27.82
534 28.12
535 28.17
536 27.16
537 27.18
538 25.77
539 27.48
540 29.18
541 28.28
542 28.31
543 28.33
544 27.84
545 27.89
546 27.95
547 26.64
548 26.21
549 26.22
550 26.23
551 24.39
552 24.37
553 20.88
554 20.89
555 20.88
556 21.28
557 21.32
558 21.5
559 21.42
560 21.19
561 21.2
562 21.21
563 21.35
564 21.34
565 21.31
566 21.67
567 21.77
568 21.75
569 21.92
570 21.12
571 21.18
572 21.11
573 20.89
574 20.89
575 20.92
576 21.15
577 20.97
578 20.99
579 22.21
580 22.48
581 22.55
582 22.54
583 21.14
584 21.06
585 21.17
586 21.21
587 21.08
588 21.21
589 21.21
590 21.71
591 21.37
592 21.26
593 21.22
594 21
595 21.11
596 21.07
597 21.12
598 21.04
599 21.05
600 20.93
601 21.02
602 21.01
603 20.96
604 21.01
605 21
606 20.92
607 20.92
608 20.93
609 1.31
610 1.31
611 1.31
612 20.89
613 18.04
614 18.06
615 18.05
616 18.05
617 20.94
618 18.06
619 18.07
620 18.06
621 20.99
622 20.96
623 21.05
624 21.16
625 20.95
626 21.09
627 21.08
628 21.06
629 21.92
630 21.91
631 22.17
632 22.23
633 22.28
634 23.22
635 23.23
636 21.08
637 21.24
638 21.35
639 21.19
640 21.22
641 21.22
642 21.04
643 15.8
644 15.95
645 15.96
646 15.97
647 16
648 15.98
649 22.17
650 21.07
651 21.18
652 23.64
653 23.65
654 23.75
655 25.17
656 26.31
657 26.19
658 26.33
659 26.51
660 26.22
661 28.62
662 29.17
663 29.22
664 28.17
665 28.17
666 28.89
667 28.68
668 31.74
669 31.82
670 30.95
671 30.25
672 30.28
673 31.81
674 31.8
675 33.05
676 33.66
677 34.33
678 34.35
679 32.63
680 37.21
681 35.71
682 36.56
683 34.01
684 34.07
685 34.54
686 30.96
687 32.65
688 32.81
689 32.65
690 33.07
691 35.34
692 37.54
693 37.52
694 37.88
695 38.22
696 39.19
697 39.28
698 36.86
699 39.22
700 39.36
701 36.23
702 36.25
703 32.97
704 32.99
705 36.06
706 42.15
707 37.18
708 40.62
709 40.61
710 35.03
711 33.86
712 33.84
713 33.87
714 35.46
715 35.45
716 48.34
717 44.52
718 44.65
719 44.69
720 44.69
721 49.47
722 50.07
723 50.08
724 56.37
725 42.26
726 45.8
727 42.2
728 42.59
729 40.35
730 42.13
731 42.2
732 40.76
733 39.44
734 37.49
735 37.53
736 39.42
737 48.6
738 39.44
739 39.43
740 39.45
741 39.45
742 48.5
743 44.29
744 44.25
745 44.09
746 32.95
747 33.02
748 39.47
749 33.43
750 33.43
751 32.86
752 32.9
753 31.9
754 31.99
755 32.05
756 28.93
757 29.04
758 29
759 29
760 26.95
761 27.04
762 27.43
763 33.28
764 33.3
765 33.36
766 29.83
767 35.13
768 35.12
769 42.17
770 49.28
771 46.13
772 46.14
773 40.53
774 46.63
775 46.59
776 46.7
777 50.67
778 50.7
779 33.68
780 33.73
781 30.02
782 29.74
783 29.58
784 32.81
785 31.1
786 31.14
787 42.01
788 42.03
789 47.16
790 71.29
791 71.35
792 58.72
793 58.62
794 42.17
795 56.3
796 64.32
797 319.58
798 551.17
799 549.08
800 548.46
801 548.29
802 548.99
803 548.33
804 581.71
805 584.49
806 245.68
807 245.28
808 29.33
809 29.47
810 286.66
811 286.12
812 59.27
813 59.4
814 27.66
815 27.69
816 27.7
817 30.2
818 30.24
819 32.69
820 34.59
821 34.62
822 33.6
823 33.61
824 29.85
825 29.84
826 29.85
827 31.01
828 29.05
829 28.83
830 29.1
831 32.45
832 37.54
833 28.96
834 27.92
835 27.94
836 26.36
837 25.18
838 25.18
839 23.2
840 24.74
841 24.49
842 24.63
843 24.98
844 21.07
845 21.09
846 21.35
847 21.05
848 21.05
849 -1002.83
850 -1000.91
851 -999.75
852 20.62
853 20.65
854 20.98
855 20.98
856 21.7
857 21.07
858 21.6
859 21.19
860 20.97
861 20.98
862 21.08
863 21.06
864 21.15
865 20.98
866 20.99
867 23.34
868 26.19
869 26.36
870 26.52
871 24.98
872 25.01
873 26.26
874 26.31
875 25.49
876 24
877 25.2
878 25.55
879 24.68
880 24.7
881 24.19
882 24.19
883 23.96
884 23.96
885 24.02
886 23.95
887 23.94
888 23.86
889 23.88
890 23.9
891 24.08
892 24.81
893 24.78
894 24.87
895 23.96
896 24.06
897 23.92
898 23.93
899 22.4
900 23.45
901 23.51
902 23.49
903 23.8
904 23.73
905 22.31
906 22.21
907 22.15
908 22.05
909 22.06
910 22.64
911 22.64
912 23.87
913 23.37
914 23.66
915 23.96
916 24.05
917 23.85
918 23.87
919 23.86
920 22.94
921 22.56
922 22.58
923 22.58
924 17.97
925 18.21
926 18.19
927 17.97
928 17.92
929 17.99
930 17.92
931 17.96
932 17.95
933 17.98
934 18.03
935 21.97
936 23.01
937 21.9
938 21.94
939 24.28
940 24.32
941 23.8
942 23.73
943 22.83
944 26.06
945 26.09
946 26.2
947 26.21
948 26.23
949 25.7
950 25.71
951 24.79
952 24.81
953 24.89
954 24.12
955 24.18
956 23.38
957 23.42
958 23.42
959 24.25
960 26.22
961 26.23
962 26.15
963 26.08
964 26.15
965 26.16
966 26.16
967 26.2
968 26.19
969 26.14
970 26.16
971 26.16
972 26.3
973 27
974 26.57
975 26.46
976 26.53
977 26.3
978 26.28
979 26.46
980 26.58
981 26.63
982 26.44
983 25.98
984 26.15
985 26.19
986 26.22
987 26.46
988 26.15
989 26.15
990 26.23
991 26.25
992 26.69
993 26.73
994 26.74
995 26.78
996 28.25
997 28.2
998 27.89
999 27.46
1000 28.06
1001 28.06
1002 28.07
1003 28.08
1004 28.07
1005 28.12
1006 27.48
1007 27.56
1008 27.05
1009 27.11
1010 27
1011 27
1012 27.03
1013 26.99
1014 27.21
1015 27.19
1016 27.28
1017 27.21
1018 27.55
1019 27.68
1020 30.01
1021 30.09
1022 31.24
1023 31.29
1024 31.31
1025 28.02
1026 28.02
1027 28.34
1028 28.32
1029 28.39
1030 28.18
1031 28.12
1032 27.15
1033 27.16
1034 27.07
1035 27.25
1036 28.06
1037 27.48
1038 27.71
1039 27.69
1040 26.97
1041 27.06
1042 26.6
1043 26.69
1044 26.39
1045 26.4
1046 26.36
1047 26.35
1048 26.31
1049 26.52
1050 26.3
1051 26.32
1052 26.56
1053 26.63
1054 26.28
1055 26.32
1056 26.64
1057 26.63
1058 26.92
1059 26.94
1060 27.2
1061 26.92
1062 26.93
1063 27.03
1064 26.93
1065 26.99
1066 27.03
1067 26.17
1068 26.31
1069 26.31
1070 26.85
1071 26.96
1072 27.16
1073 27.13
1074 27.17
1075 27.17
1076 27.35
1077 27.33
1078 26.99
1079 27.35
1080 25.91
1081 26.01
1082 25.66
1083 25.23
1084 26.43
1085 26.46
1086 26.95
1087 27.28
1088 27.4
1089 29.62
1090 29.71
1091 31.92
1092 32
1093 32.09
1094 32.08
1095 31.77
1096 30.25
1097 27.66
1098 27.48
1099 27.47
1100 27.32
1101 27.32
1102 27.33
1103 27.27
1104 41.54
1105 41.43
1106 31.9
1107 30.65
1108 30.63
1109 28.25
1110 27.45
1111 27.49
1112 27.21
1113 27.28
1114 27.16
1115 27.06
1116 27.18
1117 27.21
1118 27.86
1119 27.07
1120 27.11
1121 26.32
1122 26.33
1123 26.05
1124 26.08
1125 24.84
1126 24.88
1127 26.01
1128 26.14
1129 25.44
1130 26.02
1131 26.33
1132 26.34
1133 24.83
1134 24.43
1135 24.43
1136 23.47
1137 21.88
1138 21.65
1139 21.68
1140 21.74
1141 23.28
1142 24.33
1143 24.44
1144 25.88
1145 25.88
1146 23.96
1147 23.99
1148 23.31
1149 23.32
1150 22.44
1151 22.35
1152 22.38
1153 23.09
1154 23.08
1155 23.14
1156 23.14
1157 23.06
1158 23.06
1159 23.13
1160 23.12
1161 23.1
1162 23.07
1163 23.06
1164 23.07
1165 23.08
1166 23.18
1167 24.39
1168 24.45
1169 24.46
1170 24.38
1171 23.8
1172 23.83
1173 23.68
1174 23.7
1175 23.6
1176 23.74
1177 23.6
1178 23.73
1179 23.29
1180 23.26
1181 23.25
1182 23.34
1183 23.25
1184 23.26
1185 23.25
1186 23.28
1187 23.25
1188 20.22
1189 20.28
1190 23.13
1191 23.13
1192 23.11
1193 23.1
1194 23.06
1195 23.04
1196 23.06
1197 23.05
1198 23.05
1199 23.05
1200 23.06
1201 23.2
1202 23.05
1203 23.08
1204 23.04
1205 23.04
1206 23.05
1207 23.04
1208 23.12
1209 23.03
1210 23.02
1211 24.41
1212 21.31
1213 21.41
1214 22.88
1215 22.88
1216 22.36
1217 22.38
1218 22.39
1219 22.41
1220 0
1221 0
1222 0
1223 0
1224 0
1225 0
1226 0
1227 26.7
1228 30.71
1229 30.74
1230 32.37
1231 32.39
1232 32.4
1233 37.47
1234 37.49
1235 42.45
1236 42.5
1237 33.97
1238 32.09
1239 32.07
1240 28.85
1241 28.73
1242 28.86
1243 28.84
1244 29.27
1245 28.81
1246 28.81
1247 29.37
1248 29.37
1249 29.64
1250 29.56
1251 30.88
1252 30.91
1253 31.05
1254 30.99
1255 30.97
1256 31.01
1257 33.23
1258 33.24
1259 33.14
1260 32.8
1261 32.91
1262 41.51
1263 32.28
1264 32.33
1265 32.31
1266 32.33
1267 32.38
1268 32.55
1269 32.45
1270 32.46
1271 40.44
1272 41.73
1273 41.81
1274 45.14
1275 45.51
1276 58.97
1277 45.18
1278 45.27
1279 45.22
1280 42.41
1281 42.41
1282 50.68
1283 50.63
1284 47.94
1285 48.18
1286 31.29
1287 31.27
1288 31.23
1289 41.69
1290 41.88
1291 41.86
1292 41.64
1293 41.74
1294 41.75
1295 40.42
1296 40.45
1297 31.13
1298 31.2
1299 45.77
1300 45.74
1301 33.12
1302 33.19
1303 33.17
1304 33.9
1305 32.95
1306 32.95
1307 40.85
1308 34.86
1309 33.96
1310 33.96
1311 33.18
1312 33.16
1313 32.23
1314 30.02
1315 30.01
1316 29.2
1317 29.2
1318 29.4
1319 29.45
1320 29.38
1321 29.47
1322 29.36
1323 29.37
1324 29.38
1325 29.46
1326 40.36
1327 33.09
1328 33.2
1329 33.24
1330 45.35
1331 40.29
1332 40.25
1333 40.71
1334 40.74
1335 40.95
1336 41
1337 32.49
1338 32.29
1339 32.32
1340 42.61
1341 42.61
1342 32.95
1343 32.97
1344 31.3
1345 31.32
1346 29.55
1347 29.5
1348 31.69
1349 31.62
1350 29.83
1351 29.83
1352 29.84
1353 29.9
1354 31.2
1355 40.48
1356 40.51
1357 34.7
1358 34.59
1359 32.38
1360 32.36
1361 30.32
1362 30.36
1363 33.17
1364 33.31
1365 56.82
1366 42.56
1367 42.62
1368 40.52
1369 45.46
1370 45.6
1371 80.86
1372 81.01
1373 307.34
1374 306.5
1375 351.86
1376 351.68
1377 392.24
1378 304.04
1379 294.27
1380 294.11
1381 293.8
1382 289.18
1383 30.99
1384 30.89
1385 29.61
1386 29.65
1387 29.4
1388 29.43
1389 29.71
1390 29.81
1391 29.83
1392 29.64
1393 29.57
1394 29.56
1395 31.05
1396 31.02
1397 29.54
1398 29.59
1399 29.79
1400 29.78
1401 28.44
1402 28.51
1403 29.4
1404 29.43
1405 28.43
1406 28.55
1407 30.6
1408 33.09
1409 33.12
1410 40.25
1411 29.99
1412 30.07
1413 30.01
1414 28.09
1415 28.11
1416 29.46
1417 29.49
1418 28.86
1419 28.79
1420 27.21
1421 27.01
1422 26.97
1423 26.99
1424 27.29
1425 27.5
1426 27.36
1427 26.77
1428 26.82
1429 23.68
1430 23.61
1431 23.72
1432 23.58
1433 23.49
1434 23.47
1435 23.31
1436 23.35
1437 20.35
1438 20.35
1439 23.34
1440 22.41
1441 22.4
1442 22.32
1443 22.64
1444 25.82
1445 25.89
1446 25.78
1447 25.82
1448 25.83
1449 25.88
1450 25.87
1451 25.64
1452 25.64
1453 25.88
1454 25.86
1455 25.94
1456 25.96
1457 25.94
1458 25.23
1459 25.23
1460 25.26
1461 24.63
1462 24.64
1463 24.64
1464 24.64
1465 24.66
1466 24.63
1467 24.63
1468 24.65
1469 24.65
1470 24.64
1471 24.66
1472 24.66
1473 24.71
1474 24.72
1475 24.6
1476 24.62
1477 24.64
1478 24.6
1479 24.57
1480 24.61
1481 22.61
1482 22.62
1483 22.72
1484 22.66
1485 22.65
1486 22.66
1487 22.73
1488 22.71
1489 24.58
1490 24.61
1491 24.59
1492 24.63
1493 24.65
1494 24.65
1495 24.66
1496 24.67
1497 24.66
1498 22.62
1499 22.65
1500 24.62
1501 24.7
1502 24.68
1503 24.75
1504 24.72
1505 22.65
1506 22.63
1507 22.65
1508 22.64
1509 22.58
1510 22.52
1511 22.44
1512 22.43
1513 22.48
1514 22.85
1515 30.45
1516 30.47
1517 29.44
1518 32.44
1519 32.43
1520 34.93
1521 35.03
1522 34.99
1523 33.84
1524 33.84
1525 41.37
1526 41.41
1527 36.27
1528 36.34
1529 36.39
1530 32.18
1531 30.97
1532 31.44
1533 31.47
1534 31.25
1535 31.29
1536 30.23
1537 30.27
1538 27.3
1539 27.28
1540 29.85
1541 28.52
1542 27.79
1543 27.14
1544 26.85
1545 26.92
1546 26.69
1547 26.72
1548 27.77
1549 27.38
1550 27.28
1551 28.3
1552 28.37
1553 28.97
1554 29.24
1555 29.69
1556 29.71
1557 29.87
1558 30.02
1559 30.15
1560 30.04
1561 29.86
1562 29.75
1563 29.77
1564 29.9
1565 30.83
1566 30.8
1567 30.41
1568 30.41
1569 30.41
1570 30.35
1571 30.36
1572 30.36
1573 32.48
1574 32.48
1575 34.97
1576 34.97
1577 35.02
1578 30.77
1579 30.78
1580 30.77
1581 30.38
1582 30.76
1583 30.75
1584 30.76
1585 30.41
1586 30.42
1587 29.9
1588 29.97
1589 29.35
1590 29.43
1591 29.5
1592 29.24
1593 29.33
1594 29.74
1595 29.77
1596 29.81
1597 29.76
1598 29.42
1599 29.76
1600 29.39
1601 29.46
1602 29.45
1603 29.35
1604 29.34
1605 29.34
1606 29.47
1607 29.41
1608 29.34
1609 29.39
1610 29.32
1611 29.31
1612 29.28
1613 29.27
1614 28.55
1615 28.51
1616 28.72
1617 28.72
1618 28.75
1619 28.66
1620 29.26
1621 29.22
1622 28.7
1623 28.8
1624 28.72
1625 28.68
1626 28.7
1627 28.14
1628 28.36
1629 28.15
1630 27.86
1631 27.91
1632 29.3
1633 29.28
1634 29.39
1635 29.47
1636 30.66
1637 30.7
1638 36.12
1639 36.12
1640 37.52
1641 37.53
1642 30.78
1643 32.17
1644 29.43
1645 26.75
1646 26.57
1647 28.16
1648 26.74
1649 28.2
1650 28.15
1651 27.73
1652 27.87
1653 27.85
1654 25.2
1655 25.3
1656 25.98
1657 24.49
1658 22.71
1659 26.27
1660 26.31
1661 26.63
1662 28.19
1663 28.22
1664 28.57
1665 27.76
1666 27.84
1667 27.83
1668 28.38
1669 28.45
1670 28.5
1671 28.72
1672 28.78
1673 26.79
1674 26.83
1675 26.82
1676 26.61
1677 26.71
1678 26.51
1679 26.54
1680 40.54
1681 40.6
1682 32.33
1683 32.38
1684 32.46
1685 32.38
1686 29.44
1687 29.16
1688 29.18
1689 28.35
1690 28.33
1691 29.31
1692 30.46
1693 29.61
1694 29.56
1695 29.71
1696 32.11
1697 57.82
1698 57.93
1699 44.99
1700 45.12
1701 38.6
1702 38.53
1703 38.68
1704 40.94
1705 42.08
1706 40.14
1707 40.09
1708 40.21
1709 38.21
1710 38.24
1711 29.32
1712 28.03
1713 28.08
1714 27.01
1715 27.06
1716 22.4
1717 22.51
1718 22.39
1719 22.47
1720 22.49
1721 25.12
1722 25.09
1723 23.21
1724 23.23
1725 22.42
1726 22.51
1727 20.64
1728 20.6
1729 20.61
1730 20.7
1731 20.63
1732 22.89
1733 22.96
1734 24.45
1735 23.02
1736 22.9
1737 22.89
1738 21.27
1739 24.25
1740 24.27
1741 26.57
1742 26.59
1743 26.59
1744 25.85
1745 25.87
1746 25.04
1747 25.08
1748 24.49
1749 24.51
1750 24.51
1751 24.51
1752 24.52
1753 24.58
1754 24.63
1755 24.45
1756 24.58
1757 24.38
1758 24.31
1759 24.32
1760 22.96
1761 22.9
1762 22.88
1763 22.88
1764 23.06
1765 23.08
1766 23.12
1767 23.11
1768 23.1
1769 22.86
1770 22.87
1771 22.93
1772 22.93
1773 22.95
1774 23.54
1775 23.53
1776 23.95
1777 24.02
1778 24.04
1779 24.01
1780 23.95
1781 25.1
1782 25.11
1783 25.16
1784 25.85
1785 24.74
1786 24.75
1787 25.14
1788 25.15
1789 25.22
1790 23.51
1791 0
1792 0
1793 22.96
1794 0
1795 0
1796 0
1797 0
1798 19.95
1799 0
1800 0
1801 0
1802 0
1803 0
1804 20.02
1805 20.03
1806 24.85
1807 25
1808 25.03
1809 26.39
1810 26.41
1811 29.89
1812 29.96
1813 29.59
1814 33.22
1815 33.41
1816 29.41
1817 29.48
1818 29.91
1819 29.88
1820 29.45
1821 29.44
1822 29.46
1823 28.7
1824 28.75
1825 29.93
1826 30.03
1827 30.26
1828 29.91
1829 29.96
1830 29.76
